{
  "succ": true,
  "public_msg": "",
  "products": {
    "current_page": 1,
    "data": [
      {
        "product_id": 57,
        "type": "simple",
        "sku": "TBS001",
        "tax_enabled": 1,
        "stock_manage": 1,
        "stock_quantity": 85,
        "is_out_of_stock": false,
        "review": {
          "allowed": "1",
          "review_count": "298",
          "avg_rating": "4.9"
        },
        "entity": {
          "title": "Chocolate Face Mask | Tan Removal, Pore Tightening & Skin Brightening Face Mask for Glowing Skin \u2013 100 GM",
          "slug": "chocolate-face-mask",
          "fullURL": "https://www.thebeautysailor.com/product/chocolate-face-mask",
          "short_desc": "Who said chocolate could only curb your hunger cravings? With this new Chocolate Face Mask by The Beauty Sailor, hear the unheard wishes of your skin. Give this mask to feed your skin with love and nourishment of caramel and caffeine. Cocoa seeds, the raw materials used in making chocolate, are very high in antioxidants. These antioxidants further prevent the premature breakdown of skin cells. There are also flavanols present in the composition of this mask that help to defend the skin against harmful exposure to UV radiation. The hydrating facial mask for glowing skin enhances the elasticity. It reduces various signs of aging, such as fine lines, wrinkles, and scars appearance. The face mask has a soothing aroma of cocoa that calms not just the skin but also you.",
          "featured_img": {
            "id": 823,
            "alt_text": "2",
            "title": "2",
            "caption": null,
            "public_url": "https://d1t7245rixfc96.cloudfront.net/mm/2021/07/7B54I0u1LeYmYdrcYyOxDiUgr2.jpg",
            "thumbnail_url": "https://d1t7245rixfc96.cloudfront.net/mm/2021/07/ksRKKBWTWqvyii6UlDv8CvTJF2_300x300.jpg"
          },
          "meta_data": {
            "page_container": "container",
            "show_breadcrumb": null,
            "mpLinks": {
              "flipkart": "https://www.flipkart.com/beauty-sailor-chocolate-face-mask-vitamin-c-e/p/itm8dee1d99b7702?pid=FCPFZ96NXBVFFXVG&lid=LSTFCPFZ96NXBVFFXVGGT5VSU&marketplace=FLIPKART&srno=s_1_10&otracker=search&fm=organic&iid=85231848-776c-434a-916e-db29feca9a55.FCPFZ96NXBVFFXVG.SEARCH&ppt=browse&ppn=browse&qH=1ab6e0ccbf7da129",
              "amazon": "https://www.amazon.in/Beauty-Sailor-Chocolate-Caffeine-Sulphate/dp/B08SKB5B8B?ref_=ast_sto_dp",
              "snapdeal": "https://www.snapdeal.com/product/the-beauty-sailor-chocolate-with/672610818552#bcrumbSearch:the%20beauty%20sailor|bcrumbLabelId:46105196",
              "shopclues": "https://the-beauty-sailor.shopclues.com/the-beauty-sailor-chocolate-face-mask-100-gm-151855539.html",
              "paytm": "https://paytmmall.com/the-beauty-sailor-chocolate-face-mask-100-g-FASTHE-BEAUTY-SABBE11718212C8D74F8-pdp?sid=2b7e446d-9dac-434f-aaff-87c3bc0b1d8e&merchant_id=1171821&src=consumer_search&svc=1&cid=101415&tracker=%7C%7C%7C%7Cnull%7C%7C5%7C%7C%7C%7C&get_review_id=334742619",
              "limeroad": "https://www.limeroad.com/natural-caramel-caffeine-vitamin-e-the-beauty-sailor-p17585099?imgIdx=3&src_id=searchTrendingRail__0",
              "myntra": "https://www.myntra.com/mask-and-peel/the-beauty-sailor/the-beauty-sailor-chocolate-face-mask-with-caffeine-caramel--vitamin-e-100-gm/14294074/buy",
              "firstcry": "https://www.firstcry.com/the-beauty-sailor/the-beauty-sailor-chocolate-face-mask-with-caffeine-caramel-and-vitamin-e-for-all-skin-types-100-gm/9188026/product-detail",
              "onemg": "https://www.1mg.com/otc/the-beauty-sailor-chocolate-face-mask-otc647327",
              "purplle": "https://www.purplle.com/product/the-beauty-sailor-chocolate-face-mask-with-caffeine-caramel-and-vitamin-e-for-all-skin-types-no-paraben-no-sulphate-100-g",
              "nykaa": "https://www.nykaa.com/the-beauty-sailor-chocolate-face-mask-for-tan-removal/p/2790773?productId=2790773&pps=2",
              "meesho": "https://meesho.com/the-beauty-sailor---chocolate-face-mask--tan-removal-blackhead-removal-hydrating-pore-tightening-skin-brightening-and-whitening-sensational-hydrating-face-masks-packs--peels/p/wyi1y",
              "shopee": "https://shopee.in/The-Beauty-Sailor-Chocolate-Face-Mask-with-vitamin-C-E-(100-g)-i.553412351.11857408462?sp_atk=efea1cc0-9947-4480-b798-89cb729fd55d"
            },
            "mpLinksSort": {
              "amazon": "1",
              "flipkart": "5",
              "myntra": "3",
              "firstcry": "6",
              "snapdeal": "9",
              "shopclues": "6",
              "paytm": "7",
              "onemg": "8",
              "limeroad": "9",
              "purplle": "4",
              "nykaa": "2",
              "meesho": "6",
              "shopee": "6"
            }
          }
        },
        "price": {
          "curr": "inr",
          "curr_info": {
            "default_curr": true,
            "curr_value": 1,
            "prefix": "\u20b9",
            "suffix": "/-",
            "decimals": 2
          },
          "is_on_sale": true,
          "regular": 1249,
          "isTaxIncluded": true,
          "sale": 886,
          "min": 0,
          "max": 0,
          "off": "29% Off"
        }
      },
      {
        "product_id": 58,
        "type": "simple",
        "sku": "TBS002",
        "tax_enabled": 1,
        "stock_manage": 1,
        "stock_quantity": 4822,
        "is_out_of_stock": false,
        "review": {
          "allowed": "1",
          "review_count": "379",
          "avg_rating": "4.8"
        },
        "entity": {
          "title": "Coffee Face Wash for Oily and Dry Skin | Acne & Oil Control, Hydrating Face Wash \u2013 100 ML",
          "slug": "coffee-face-wash",
          "fullURL": "https://www.thebeautysailor.com/product/coffee-face-wash",
          "short_desc": "Over the passing decade, coffee has paved its way as an alternative skin remedy. The Beauty Sailor keeping up with the pacing time, introduces Energizing and cleansing Coffee Face Wash, which makes sure that your skin wakes up when you wake up in the morning. Laden with pure coffee, this facewash sucks out the impurities and leaves your skin breathing. The face wash for pimples and anti-aging skin that contains coffee removes dead skin cells, and the addition of Polyphenol acts as sun protecting agents, hence saving the fresh skin from harmful UV radiations. Undoubtedly, this newly found joy of coffee facewash for keeping your skin fresh is worth it.",
          "featured_img": {
            "id": 848,
            "alt_text": "fw2",
            "title": "fw2",
            "caption": null,
            "public_url": "https://d1t7245rixfc96.cloudfront.net/mm/2021/07/u7MY4lSKb94ikjy9M2V3dc3EBfw2.jpg",
            "thumbnail_url": "https://d1t7245rixfc96.cloudfront.net/mm/2021/07/eC6rhai3JhNJK9DxJwSbUmGFzfw2_300x300.jpg"
          },
          "meta_data": {
            "page_container": "container",
            "show_breadcrumb": null,
            "mpLinks": {
              "flipkart": "https://www.flipkart.com/beauty-sailor-coffee-gently-exfoliates-radiant-cleanse-energize-skin-face-wash/p/itme7f1b0885df00?pid=FCWFZ97E2FX2ZJUU",
              "amazon": "https://www.amazon.in/Beauty-Sailor-Coffee-Face-Women/dp/B08SK8V77V?ref_=ast_sto_dp",
              "snapdeal": "https://www.snapdeal.com/product/the-beauty-sailor-with-coffee/652049783733",
              "paytm": "https://paytmmall.com/the-beauty-sailor-coffee-face-wash-100-ml-FASTHE-BEAUTY-SABBE117182164ED1D41-pdp?sid=65c6de54-3865-4ae9-9b8e-535e5b761faa&merchant_id=1171821&src=consumer_search&svc=1&cid=101333&tracker=%7C%7C%7C%7Cnull%7C%7C2%7C%7C%7C%7C&get_review_id=334782099",
              "shopclues": "https://the-beauty-sailor.shopclues.com/the-beauty-sailor-coffee-face-wash-100-ml-151855278.html",
              "firstcry": "https://www.firstcry.com/the-beauty-sailor/the-beauty-sailor-coffee-face-wash-100-ml/9188027/product-detail",
              "myntra": "https://www.myntra.com/face-wash-and-cleanser/the-beauty-sailor/the-beauty-sailor-unisex-coffee-face-wash-100-ml/14222090/buy",
              "limeroad": "https://www.limeroad.com/natural-coffee-extracts-the-beauty-sailor-p17651298?imgIdx=3&src_id=fromsearch__0",
              "onemg": "https://www.1mg.com/otc/the-beauty-sailor-coffee-face-wash-otc647338",
              "purplle": "https://www.purplle.com/product/the-beauty-sailor-coffee-face-wash-for-men-and-women-fresh-cleanse-energize-skin-anti-acne-face-wash-100-ml",
              "nykaa": "https://www.nykaa.com/the-beauty-sailor-exfoliating-coffee-face-wash/p/2790774?productId=2790774&pps=10",
              "meesho": "https://meesho.com/the-beauty-sailor--coffee-face-wash--exfoliating-cleansing-hydrating-acne-control-oil-control-face-wash--energizing-face-wash-for-glowing-skin/p/wyi1g",
              "shopee": "https://shopee.in/The-Beauty-Sailor-Coffee-Gently-Exfoliates-For-Radiant-Cleanse-Energize-Skin-Face-Wash-(100-ml)-i.553412351.13624793897?sp_atk=26ed5d89-3c9e-49b1-866f-ef09f8caadd8"
            },
            "mpLinksSort": {
              "amazon": "1",
              "flipkart": "5",
              "myntra": "3",
              "firstcry": "7",
              "snapdeal": "8",
              "shopclues": "6",
              "paytm": "7",
              "onemg": "8",
              "limeroad": "9",
              "purplle": "4",
              "nykaa": "2",
              "meesho": "6",
              "shopee": "6"
            }
          }
        },
        "price": {
          "curr": "inr",
          "curr_info": {
            "default_curr": true,
            "curr_value": 1,
            "prefix": "\u20b9",
            "suffix": "/-",
            "decimals": 2
          },
          "is_on_sale": true,
          "regular": 649,
          "isTaxIncluded": true,
          "sale": 549,
          "min": 0,
          "max": 0,
          "off": "15% Off"
        }
      },
      {
        "product_id": 60,
        "type": "simple",
        "sku": "TBS003",
        "tax_enabled": 1,
        "stock_manage": 1,
        "stock_quantity": 4587,
        "is_out_of_stock": false,
        "review": {
          "allowed": "true",
          "review_count": "286",
          "avg_rating": "4.9"
        },
        "entity": {
          "title": "Avocado & Tea Tree Oil Face Wash | Anti Acne, Oil Clear Face Wash for Refreshing Glow \u2013 100 ML",
          "slug": "avocado-and-tea-tree-oil-face-wash",
          "fullURL": "https://www.thebeautysailor.com/product/avocado-and-tea-tree-oil-face-wash",
          "short_desc": "From pollution to makeup, late-night getaways to a full day of work, it's the skin that suffers the most and skin paid the least attention. Reward your skin with the gift of tender and complete cleansing with purifying and refreshing Avocado and Tea Tree Oil Face wash by The Beauty Sailor. The face wash will smoothen, calm and hydrate your skin. It keeps the skin refreshed for entire day's journey.",
          "featured_img": {
            "id": 849,
            "alt_text": "4",
            "title": "4",
            "caption": null,
            "public_url": "https://d1t7245rixfc96.cloudfront.net/mm/2021/07/oPPjkpES0XkaIx3w1ch1whJi04.jpg",
            "thumbnail_url": "https://d1t7245rixfc96.cloudfront.net/mm/2021/07/Gm6PTbhv38jwbOHjDDaSrbc474_300x300.jpg"
          },
          "meta_data": {
            "page_container": "container",
            "show_breadcrumb": null,
            "mpLinks": {
              "flipkart": "https://www.flipkart.com/beauty-sailor-avocado-tea-tree-oil-purifying-refreshing-skin-improves-complexion-skin-face-wash/p/itm55e7308666784?pid=FCWFZ97EYZBHKHT3",
              "amazon": "https://www.amazon.in/Beauty-Sailor-Purifying-Refreshing-Complexion/dp/B08SKDX63W?ref_=ast_sto_dp",
              "snapdeal": "https://www.snapdeal.com/product/the-beauty-sailor-avocado-and/652239314767",
              "shopclues": "https://the-beauty-sailor.shopclues.com/the-beauty-sailor-avocado-and-tea-tree-oil-face-wash-100-ml-151855279.html",
              "paytm": "https://paytmmall.com/the-beauty-sailoravocado-and-tea-tree-oil-face-wash-100-ml-FASTHE-BEAUTY-SABBE11718218D77AA2C-pdp?sid=65c6de54-3865-4ae9-9b8e-535e5b761faa&merchant_id=1171821&src=consumer_search&svc=1&cid=101333&tracker=%7C%7C%7C%7Cnull%7C%7C6%7C%7C%7C%7C&get_review_id=334782100",
              "onemg": "https://www.1mg.com/otc/the-beauty-sailor-avocado-tea-tree-oil-face-wash-otc647340",
              "limeroad": "https://www.limeroad.com/natural-avocado-oil-aloe-vera-extract-tea-tree-basil-extracts-the-beauty-sailor-p17583273?imgIdx=3&src_id=fromsearch__0",
              "myntra": "https://www.myntra.com/face-wash-and-cleanser/the-beauty-sailor/the-beauty-sailor-unisex-avocado---tea-tree-oil-face-wash-100-ml/14222086/buy",
              "firstcry": "https://www.firstcry.com/the-beauty-sailor/the-beauty-sailor-avocado-and-tea-tree-oil-face-wash-100-ml/9188028/product-detail",
              "purplle": "https://www.purplle.com/product/the-beauty-sailor-avocado-and-tea-tree-oil-face-wash-for-purifying-refreshing-and-improves-complexion-of-skin-100-ml",
              "nykaa": "https://www.nykaa.com/the-beauty-sailor-refreshing-avocado-and-tea-tree-oil-face-wash/p/2790775?productId=2790775&pps=8",
              "meesho": "https://meesho.com/face-wash-for-men/p/wqdlf",
              "shopee": "https://shopee.in/The-Beauty-Sailor-Avocado-and-Tea-Tree-Oil-For-Purifying-Refreshing-Skin-Improves-Complexion-of-Skin-Face-Wash-(100-ml)-i.553412351.13624793781?sp_atk=a94e7701-a20b-4a54-b83c-7e710c4846d6"
            },
            "mpLinksSort": {
              "amazon": "1",
              "flipkart": "5",
              "myntra": "3",
              "firstcry": "7",
              "snapdeal": "8",
              "shopclues": "6",
              "paytm": "7",
              "onemg": "8",
              "limeroad": "9",
              "purplle": "4",
              "nykaa": "2",
              "meesho": "6",
              "shopee": "6"
            }
          }
        },
        "price": {
          "curr": "inr",
          "curr_info": {
            "default_curr": true,
            "curr_value": 1,
            "prefix": "\u20b9",
            "suffix": "/-",
            "decimals": 2
          },
          "is_on_sale": true,
          "regular": 649,
          "isTaxIncluded": true,
          "sale": 549,
          "min": 0,
          "max": 0,
          "off": "15% Off"
        }
      },
      {
        "product_id": 61,
        "type": "simple",
        "sku": "TBS004",
        "tax_enabled": 1,
        "stock_manage": 1,
        "stock_quantity": 4684,
        "is_out_of_stock": false,
        "review": {
          "allowed": "true",
          "review_count": "1074",
          "avg_rating": "4.9"
        },
        "entity": {
          "title": "Walnut, Coffee and Coconut Face Scrub | Tan and Blackhead Removal, Exfoliating Face Scrub for Skin Brightening \u2013 100 GM",
          "slug": "walnut-coffee-coconut-face-scrub",
          "fullURL": "https://www.thebeautysailor.com/product/walnut-coffee-coconut-face-scrub",
          "short_desc": "Infused with a finely ground walnut and Coffee, prepared in natural and pure sunflower oil, Sparkling Skin Walnut, Coffee, and Coconut Scrub by The Beauty Sailor is the perfect fit if you are looking for a scrub to exfoliate, deeply cleanse, and nourish your tender skin. It brushes away the dead skin, impurities, dirt, blackheads, and excessive oils, making your skin radiant, light, bright, and flawless.",
          "featured_img": {
            "id": 850,
            "alt_text": "Scrub1",
            "title": "Scrub1",
            "caption": null,
            "public_url": "https://d1t7245rixfc96.cloudfront.net/mm/2021/07/EQmIHjrXoaZICJvpHpyYxmBgXscrub1.jpg",
            "thumbnail_url": "https://d1t7245rixfc96.cloudfront.net/mm/2021/07/sD5QtC2MrCsTJs77OudCojXZzscrub1_300x300.jpg"
          },
          "meta_data": {
            "page_container": "container",
            "show_breadcrumb": null,
            "mpLinks": {
              "flipkart": "https://www.flipkart.com/beauty-sailor-walnut-coffee-coconut-face-scrub-helps-cleanse-hydrates-restore-protective-skin-barrier/p/itmcc5f7fad49619?pid=SCBFZ98V4PGSSQAG",
              "amazon": "https://www.amazon.in/Beauty-Sailor-Coconut-Blackheads-Removing/dp/B08SKFB5NR?ref_=ast_sto_dp",
              "snapdeal": "https://www.snapdeal.com/product/the-beauty-sailor-walnut-coffee/655758707777",
              "shopclues": "https://the-beauty-sailor.shopclues.com/the-beauty-sailor-walnut-coffee-and-coconut-face-scrub-100-gm-151855561.html",
              "paytm": "https://paytmmall.com/the-beauty-sailor-walnut-coffee-coconut-face-scrub-100g-FASTHE-BEAUTY-SABBE11718219A386785-pdp?sid=65c6de54-3865-4ae9-9b8e-535e5b761faa&merchant_id=1171821&src=consumer_search&svc=1&cid=101333&tracker=%7C%7C%7C%7Cnull%7C%7C8%7C%7C%7C%7C&get_review_id=334782101",
              "firstcry": "https://www.firstcry.com/the-beauty-sailor/the-beauty-sailor-walnut-coffee-and-coconut-face-scrub-100-gm/9188029/product-detail",
              "myntra": "https://www.myntra.com/face-scrub-and-exfoliator/the-beauty-sailor/the-beauty-sailor-unisex-walnut-coffee--coconut-face-scrub-100-gm/14222082/buy",
              "limeroad": "https://www.limeroad.com/natural-coffee-extracts-coconut-oil-walnut-particles-the-beauty-sailor-p17583418?imgIdx=3&src_id=fromsearch__0",
              "onemg": "https://www.1mg.com/otc/the-beauty-sailor-walnut-coffee-coconut-face-scrub-otc647343",
              "purplle": "https://www.purplle.com/product/the-beauty-sailor-walnut-coffee-and-coconut-face-scrub-for-dead-skin-and-blackheads-removal-whitens-by-removing-tan-100-g",
              "nykaa": "https://www.nykaa.com/the-beauty-sailor-cleansing-walnut-coffee-coconut-face-scrub/p/2790776?productId=2790776&pps=3",
              "meesho": "https://meesho.com/the-beauty-sailor---walnut-coffee-and-coconut-face-scrub--tan-removal-blackhead-removal-exfoliating--coffee-scrub-for-open-pores-and-glowing-skin/p/wz1g0",
              "shopee": "https://shopee.in/The-Beauty-Sailor-Walnut-Coffee-Coconut-Face-Scrub-Helps-Cleanse-Hydrates-Restore-Protective-Skin-Barrier-Scrub-(100-g)-i.553412351.13024808007?sp_atk=21d9b03d-8123-4e40-808d-300bb5e851f4"
            },
            "mpLinksSort": {
              "amazon": "1",
              "flipkart": "5",
              "myntra": "3",
              "firstcry": "7",
              "snapdeal": "8",
              "shopclues": "6",
              "paytm": "7",
              "onemg": "8",
              "limeroad": "9",
              "purplle": "4",
              "shopee": "6",
              "meesho": "6",
              "nykaa": "2"
            }
          }
        },
        "price": {
          "curr": "inr",
          "curr_info": {
            "default_curr": true,
            "curr_value": 1,
            "prefix": "\u20b9",
            "suffix": "/-",
            "decimals": 2
          },
          "is_on_sale": false,
          "regular": 999,
          "isTaxIncluded": true,
          "sale": 0,
          "min": 0,
          "max": 0,
          "off": ""
        }
      },
      {
        "product_id": 62,
        "type": "simple",
        "sku": "TBS005",
        "tax_enabled": 1,
        "stock_manage": 1,
        "stock_quantity": 850,
        "is_out_of_stock": false,
        "review": {
          "allowed": "true",
          "review_count": "276",
          "avg_rating": "5.0"
        },
        "entity": {
          "title": "Premium Ultra Hydrating Body Lotion | Avocado Body Lotion for Deep Nourishment & Moisturization \u2013 300 ML",
          "slug": "moisturizing-body-lotion",
          "fullURL": "https://www.thebeautysailor.com/product/moisturizing-body-lotion",
          "short_desc": "Healthy and Lustrous Moisturizing Lotion for face and body by The Beauty Sailor is a premium face and body lotion enriched with Jojoba Oil, Aloe Vera extracts, and more. It is uniquely formulated to keep your thirsty skin moisturized and, at the same time, give it a velvety and oil-free texture. The blend of Avocado and Jojoba oil, along with Aloe-vera extracts and vitamin E, protects, nourishes, and softens the skin. Jojoba Oil helps keep your skin hydrated and moisturized for a long time by forming a protective layer over the skin's surface. \nJojoba Oil is deeply penetrative hence non-greasy, and soothes dry skin. Avocado Oil is a carrier oil that removes the excess oil, which helps prevent acne. The aromatic properties add to its qualities, giving you the perfect experience of rejuvenation.",
          "featured_img": {
            "id": 525,
            "alt_text": "5",
            "title": "5",
            "caption": null,
            "public_url": "https://d1t7245rixfc96.cloudfront.net/mm/2021/03/iPA21XLC22ueWZBxvMSWVLEim5.jpg",
            "thumbnail_url": "https://d1t7245rixfc96.cloudfront.net/mm/2021/03/KPGXy0gdXRXKTgmzX5YG5lM505_300x300.jpg"
          },
          "meta_data": {
            "page_container": "container",
            "show_breadcrumb": null,
            "mpLinks": {
              "flipkart": "https://www.flipkart.com/beauty-sailor-body-lotion-ultra-nourishing-wonderful-sensation-rejuvenation-avocado-jojoba-aloe-vera-vitamin-e/p/itm0b290293aaf1f?pid=MSCFZBZTXCXZAC5A",
              "amazon": "https://www.amazon.in/Beauty-Sailor-Nourishing-Moisturizing-Rejuvenation/dp/B08SKGLBS6?ref_=ast_sto_dp",
              "snapdeal": "https://www.snapdeal.com/product/the-beauty-sailor-with-vitamin/685036894333",
              "shopclues": "https://the-beauty-sailor.shopclues.com/the-beauty-sailor-body-lotion-300-ml-151853077.html",
              "paytm": "https://paytmmall.com/the-beauty-sailor-body-lotion-300-ml-FASTHE-BEAUTY-SABBE11718217AFC3994-pdp?sid=65c6de54-3865-4ae9-9b8e-535e5b761faa&merchant_id=1171821&src=consumer_search&svc=1&cid=101387&tracker=%7C%7C%7C%7Cnull%7C%7C3%7C%7C%7C%7C&get_review_id=334782102",
              "firstcry": "https://www.firstcry.com/the-beauty-sailor/the-beauty-sailor-avocado-body-lotion-300-ml/9188076/product-detail",
              "myntra": "https://www.myntra.com/body-lotion/the-beauty-sailor/the-beauty-sailor-avocado-body-lotion-with-jojoba-oil-300-ml/14294080/buy",
              "limeroad": "https://www.limeroad.com/white-jojoba-oil-vitamin-e-aloe-vera-extract-avocado-oil-the-beauty-sailor-p17583577?imgIdx=3&src_id=fromsearch__0",
              "onemg": "https://www.1mg.com/otc/the-beauty-sailor-body-lotion-otc647344",
              "purplle": "https://www.purplle.com/product/the-beauty-sailor-avocado-body-lotion-for-ultra-nourishing-moisturizing-rejuvenating-skin-300-ml",
              "nykaa": "https://www.nykaa.com/the-beauty-sailor-premium-ultra-nourishing-avocado-body-lotion/p/2790777?productId=2790777&pps=9",
              "meesho": "https://meesho.com/the-beauty-sailor---premium-ultra-hydrating-avocado-body-lotion-for-complete-skin-nourishment-soothing-moisturizing-body-lotion-for-oily-and-dry-skin/p/wz2de",
              "shopee": "https://shopee.in/The-Beauty-Sailor-Body-Lotion-For-Ultra-Nourishing-A-wonderful-Sensation-Rejuvenation-With-Avocado-Jojoba-Aloe-Vera-Vitamin-E-(300-ml)-i.553412351.12924804014?sp_atk=1621d3ea-7843-4359-91ee-cdeb2dbb21b2"
            },
            "mpLinksSort": {
              "amazon": "1",
              "flipkart": "5",
              "myntra": "3",
              "firstcry": "7",
              "snapdeal": "8",
              "shopclues": "6",
              "paytm": "7",
              "onemg": "8",
              "limeroad": "9",
              "purplle": "4",
              "nykaa": "2",
              "meesho": "6",
              "shopee": "6"
            }
          }
        },
        "price": {
          "curr": "inr",
          "curr_info": {
            "default_curr": true,
            "curr_value": 1,
            "prefix": "\u20b9",
            "suffix": "/-",
            "decimals": 2
          },
          "is_on_sale": true,
          "regular": 1299,
          "isTaxIncluded": true,
          "sale": 999,
          "min": 0,
          "max": 0,
          "off": "23% Off"
        }
      }
    ],
    "first_page_url": "https://www.thebeautysailor.com/api/products/home-search?page=1",
    "from": 1,
    "last_page": 15,
    "last_page_url": "https://www.thebeautysailor.com/api/products/home-search?page=15",
    "links": [
      {
        "url": null,
        "label": "&laquo; Previous",
        "active": false
      },
      {
        "url": "https://www.thebeautysailor.com/api/products/home-search?page=1",
        "label": 1,
        "active": true
      },
      {
        "url": "https://www.thebeautysailor.com/api/products/home-search?page=2",
        "label": 2,
        "active": false
      },
      {
        "url": "https://www.thebeautysailor.com/api/products/home-search?page=3",
        "label": 3,
        "active": false
      },
      {
        "url": "https://www.thebeautysailor.com/api/products/home-search?page=4",
        "label": 4,
        "active": false
      },
      {
        "url": "https://www.thebeautysailor.com/api/products/home-search?page=5",
        "label": 5,
        "active": false
      },
      {
        "url": "https://www.thebeautysailor.com/api/products/home-search?page=6",
        "label": 6,
        "active": false
      },
      {
        "url": "https://www.thebeautysailor.com/api/products/home-search?page=7",
        "label": 7,
        "active": false
      },
      {
        "url": "https://www.thebeautysailor.com/api/products/home-search?page=8",
        "label": 8,
        "active": false
      },
      {
        "url": "https://www.thebeautysailor.com/api/products/home-search?page=9",
        "label": 9,
        "active": false
      },
      {
        "url": "https://www.thebeautysailor.com/api/products/home-search?page=10",
        "label": 10,
        "active": false
      },
      {
        "url": null,
        "label": "...",
        "active": false
      },
      {
        "url": "https://www.thebeautysailor.com/api/products/home-search?page=14",
        "label": 14,
        "active": false
      },
      {
        "url": "https://www.thebeautysailor.com/api/products/home-search?page=15",
        "label": 15,
        "active": false
      },
      {
        "url": "https://www.thebeautysailor.com/api/products/home-search?page=2",
        "label": "Next &raquo;",
        "active": false
      }
    ],
    "next_page_url": "https://www.thebeautysailor.com/api/products/home-search?page=2",
    "path": "https://www.thebeautysailor.com/api/products/home-search",
    "per_page": 5,
    "prev_page_url": null,
    "to": 5,
    "total": 74
  }
}